{
    "DefaultReactionEmoji": "💬",
    "Username": "@quotesfilebot:example.com",
    "PasswordFile": "/path/to/password/file",
    "Homeserver": "https://matrix.example.com",
    "JoinMessage": "I'm the bot, I'm the bot, I'm the bot, I'm the bot, I'm the bot, I'm the bot, I'm the bot, I'm the bot, I'm the bot!"
}
